/* XPM */
const char*blue_b_end[]={
"8 8 4 1",
"b c #0000ff",
"a c #000084",
". c None",
"# c #00ffff",
"...#a...",
"..#bba..",
"..abba..",
"...aa...",
"........",
"...aa...",
"...aa...",
"aaaaaaaa"};
