/* XPM */
static char * close_xpm[] = {
"16 16 6 1",
" 	c None",
".	c None",
"+	c #848484",
"@	c #FFFF00",
"#	c #FFFFFF",
"$	c #000000",
".+++............",
"+@#@++++........",
"++++@#@#$.......",
"+@#@#@#@$.......",
"+#@#@#@#$.......",
"+@#@#@#@$.......",
"+#@#@#@#$.......",
"+$$$$$$$+.+#+...",
"........#++#++#.",
"$.......+#+#+#+.",
"$...$..+++###+++",
"$$$$$$.#########",
"+$$$$$.+++###+++",
"....$...+#+#+#+.",
"........#++#++#.",
"..........+#+..."};
