/* XPM */
static char*dist[]={
"16 16 5 1",
"b c #000000",
"a c #868686",
"c c #ffffff",
". c #000080",
"# c None",
"....############",
".###############",
".###############",
".###############",
".###aaaaaaaaaaab",
".##a##########bb",
".#accccccccccbab",
".#a##########bab",
".#a#aaaaaaaa#bab",
".#.#acccccca#bab",
".#..a##aba#a#bab",
".....#abbbaa#bab",
"##..a##aba#a#bab",
"##.#aaaaaaaa#bab",
"##a##########bb#",
"##bbbbbbbbbbbb##"};
