/* XPM */
const char*folder_link_xpm[]={
"16 16 9 1",
"a c #000000",
"b c #f0f0f0",
"d c #ffff9f",
". c None",
"g c #808080",
"e c #cfcf60",
"f c #ffcf9f",
"# c #9f9f00",
"c c #ffffcf",
"................",
"..#####a........",
".#bccdd#a.......",
"#eeeeeee######..",
"#cccccccccccdea.",
"#cddddddddddfea.",
"#cdddddddfdfdea.",
"#cddddddddfdfea.",
"#cdddddfdfdfdea.",
"ggggggadfdfdfea.",
"g.....afdfdffea.",
"g..aa.adfdfffea.",
"g.aga.aeeeeeeea.",
"g.a...aaaaaaaaa.",
"g.....a.........",
"aaaaaaa........."};
