/* XPM */
static char *[] = {
"16 16 5 1",
"  c None",
". c #d1fff3",
"X c #808780",
"o c Gray100",
"O c Gray0",
"OOOOOO          ",
"O...O.O         ",
"O.O.OOOO        ",
"O......O        ",
"O.OOOO.O        ",
"O......O        ",
"O.OOOO.O        ",
"O......O  XoX   ",
"OOOOOOOOoXXoXXo ",
"        XoXoXoX ",
"O      XXXoooXXX",
"O   O  ooooooooo",
"OOOOOO XXXoooXXX",
"XOOOOO  XoXoXoX ",
"    O   oXXoXXo ",
"          XoX   "
};
