/* XPM */
static char *[] = {
"16 16 4 1",
"  c None",
". c #215b4b",
"X c #d1fff3",
"o c Gray0",
"                ",
"oooooo          ",
"oXXXXoo         ",
"oXXXXoXo        ",
"oXooXo......    ",
"oXXXXX.XXXX..   ",
"oXoooo.XXXX.X.  ",
"oXXXXX.XooX.... ",
"oXoooo.XXXXXXX. ",
"oXXXXX.XoooooX. ",
"oooooo.XXXXXXX. ",
"      .XoooooX. ",
"      .XXXXXXX. ",
"      ......... ",
"                ",
"                "
};
