/* XPM */
static char *[] = {
"16 16 6 1",
"  c None",
". c #00ffba",
"X c #94ffe2",
"o c #788078",
"O c #b8c0b8",
"+ c Gray0",
" +++            ",
"+O.o++++++o     ",
"+.O.O.O.O.+     ",
"+O.O.O.O.O+     ",
"+.O.O.O++.+ ++  ",
"+O.O.O.++O+ ++  ",
"+.O.O.O++.+ ++  ",
"+O.O.+++++o+++++",
"o+++++++++++++++",
"     +X++++X++++",
"     +X++++X++++",
"     +++++++++++",
"     +++o   o+++",
"     +X+     +X+",
"     +++     +++",
"                "
};
