/* XPM */
static char *[] = {
"16 16 6 1",
"  c None",
". c #94ffe2",
"X c #d1fff3",
"o c #184135",
"O c #808080",
"+ c Gray0",
"+++++++++++     ",
"+XXXXXXXXX+     ",
"+XoooooooX+     ",
"+XXXXXXXXX+     ",
"+XoooooXXX+     ",
"+XXXXXX++X+ ++  ",
"+XooooX++X+ ++  ",
"+XXXX++++++++++ ",
"+XooX+++++++++++",
"+XXXX+.++++.++++",
"+XXXX+.++++.++++",
"+XXXX+++++++++++",
"+XXXX+++O.+ O+++",
"++++++.++++  +.+",
"     +++     +++",
"                "
};
