/* XPM */
static char *[] = {
"16 16 6 1",
"  c None",
". c #00876b",
"X c Gray100",
"o c #c0c0c0",
"O c #808080",
"+ c Gray0",
"XXXXXXXXoXXXXXXo",
"X.......OX.....O",
"X.......OX.....O",
"X.......OX.....O",
"X.......OX.....O",
"XoooooooOXoooooO",
"XoooooooOXoooooO",
"XoooooooOXoooooO",
"XoooooooOXoooooO",
"XoooooooOXoooooO",
"XoooooooOXoooooO",
"XoooooooOXoooooO",
"XoooooooOXoooooO",
"XoooooooOXoooooO",
"XoooooooOXoooooO",
" OOOOOOOOoOOOOOO"
};
