/* XPM */
static char *[] = {
"16 16 6 1",
"  c None",
". c #00876b",
"X c Gray100",
"o c #c0c0c0",
"O c #808080",
"+ c Gray0",
"XXXXXXXXXXXXXXXo",
"X..............O",
"X..............O",
"X..............O",
"X..............O",
"XooooooooooooooO",
"XooooooooooooooO",
"XooooooooooooooO",
"XooooooooooooooO",
"XooooooooooooooO",
"XooooooooooooooO",
"XooooooooooooooO",
"XooooooooooooooO",
"XooooooooooooooO",
"XooooooooooooooO",
" OOOOOOOOOOOOOOO"
};
