/* XPM */
static char *[] = {
"16 16 4 1",
"  c None",
". c #00876b",
"X c #b8c0b8",
"o c Gray0",
"                ",
" oooooooooooooo ",
" o.oXXXXXXXXoXo ",
" o.oXXXXXXXXooo ",
" o.oXXXXXXXXo.o ",
" o.oXXXXXXXXo.o ",
" o.oXXXXXXXXo.o ",
" o.oXXXXXXXXo.o ",
" o..oooooooo..o ",
" o............o ",
" o..ooooooooo.o ",
" o..ooooooXXo.o ",
" o..ooooooXXo.o ",
" o..ooooooXXo.o ",
"  ooooooooooooo ",
"                "
};
