/* XPM */
static char *[] = {
"16 16 3 1",
"  c None",
". c #184135",
"X c Gray0",
"                ",
"                ",
"                ",
"                ",
"        ....    ",
"  .   ..    .   ",
"  .. .       .  ",
"  ...        .  ",
"  ....       .  ",
"  .....     .   ",
"            .   ",
"                ",
"                ",
"                ",
"                ",
"                "
};
