/* XPM */
static char * h_xpm[] = {
"16 16 5 1",
" 	c None",
".	c None",
"+	c #FCF54C",
"@	c #FF0000",
"#	c #868686",
"..........+.....",
"......@@.+++....",
"......@@#++++...",
"......@@#+++++..",
"......@@#++++++.",
".....+@@@@@++++#",
"....++@@@@@@+++#",
"...+++@@##@@#++#",
"..++++@@#+@@#++#",
".+++++@@#+@@#+##",
"..++++@@#+@@###.",
"..@@++@@#+@@##..",
"...##++##++##...",
".....+++++##....",
"......+++##.....",
".......+##......"};
