/* XPM */
static char * minus_file_xpm[] = {
"16 16 10 1",
" 	c None",
".	c None",
"+	c #848484",
"@	c #FF0000",
"#	c #000000",
"$	c #FFFFFF",
"%	c #840000",
"&	c #C6C6C6",
"*	c #FFFF00",
"=	c #848400",
"................",
".........++++++.",
"..+++++++@@@@@@#",
"..+$$$$$+%%%%%%#",
"..+$&&&&+######.",
"..+$$$$$++++#...",
".#+$&&&&$$$&#...",
"#*+$$$$$$$$&#...",
"#$+$&&&&&&$&#...",
"#*+$$$$$########",
"#$+$####=======#",
"#*+#===========#",
"#$+#==========#.",
"#*#==========#..",
"##==========#...",
"############...."};
