/* XPM */
static char * options_dlg_xpm[] = {
"16 16 7 1",
" 	c None",
".	c None",
"+	c #848484",
"@	c #FFFFFF",
"#	c #0000FF",
"$	c #000000",
"%	c #C6C6C6",
"................",
"................",
".+++++++++++++++",
".+@#########@#@$",
".+$$$$$$$$$$$$$$",
".+%@%@%@%@%@%@%$",
".+@%@%@$$%@%@%@$",
".+%@$@$$%@%@%@%$",
".+@%$$$%@%@%@%@$",
".+%@%$%@%@%@%@%$",
".+@%@%@$$%@%@%@$",
".+%@$@$$%@%@%@%$",
".+@%$$$%@%@%@%@$",
".+%@%$%@%@%@%@%$",
".+@%@%@%@%@%@%@$",
".$$$$$$$$$$$$$$$"};
