/* XPM */
static char * run[] = {
"16 16 4 1",
".	c None",
"+	c #00FF00",
"@	c #C6C6C6",
"#	c #000000",
"................",
".....+@.........",
".....@+@........",
".....+@+@.......",
".....@+@+@......",
".....+@+@+@.....",
".....@+@+@+@....",
".....+@+@+@+@...",
".....@+@+@+@#...",
".....+@+@+@#....",
".....@+@+@#.....",
".....+@+@#......",
".....@+@#.......",
".....+@#........",
".....##.........",
"................"};
