/* XPM */
static char*memo[]={
"16 16 32 1",
"b c #000000",
"z c #333300",
"w c #666600",
"i c #ccff00",
"j c #330000",
"s c #99cc33",
"u c #999900",
"m c #cccc00",
"n c #999933",
"v c #282828",
"e c #ffff00",
"a c #663333",
"B c #0d0d0d",
"l c #660000",
"q c #cccc33",
"p c #ffff33",
"r c #cc9933",
"C c #999999",
"d c #993333",
"k c #a1a1a1",
"c c #868686",
"h c #353535",
"o c #cccccc",
"g c #cc9999",
"f c #cc6666",
". c None",
"# c #ff0000",
"D c #939393",
"y c #787878",
"A c #5d5d5d",
"t c #f1f1f1",
"x c #336600",
"............#...",
"............a#..",
".....b......cd#.",
"....beb..f#g#ah#",
"...beieb..d#ajkl",
"..beeeeib.ljl...",
".beeieimnbohjl..",
"beiepeqrsoh.....",
"beeiiqssthnb....",
".bummqntvwxwb...",
"..bbuumnnqsqub..",
"...ybbbbbbqqub..",
"....ybzhzbnnb...",
".....yAbbBzb....",
"......CyAbb.....",
".......DCD......"};
