/* XPM */
static char*xpm[]={
"16 16 8 1",
"b c #000000",
"f c #ffff00",
"c c #800000",
". c None",
"d c #ff0000",
"# c #808080",
"a c #c0c0c0",
"e c #808000",
"...##aa.........",
"..#.a##aaa......",
".#.aaaa##aaaa...",
"..b#aaaaa#####..",
"...ccb#aa#####b.",
"...dccbbb####bb.",
"...ddce##bbbbb..",
".##dddefeeebb...",
"#.##ddeeeebb.b..",
"#a..##b##b..#b..",
"#aaa..##..###b..",
"#aaaaa..#####b..",
"bbaaaaaa#####b#.",
"..bbaaaa####bb##",
"....bbaa##bb###.",
"......bbbb###..."};
