/* XPM */
static char*unindent[]={
"16 16 3 1",
"# c #000000",
"a c #000080",
". c None",
"................",
"................",
"................",
"..####.########.",
"................",
"...a...########.",
"..aa............",
".aaaaa.#####....",
"..aa............",
"...a...######...",
"................",
"..####.########.",
"................",
"..####.####.....",
"................",
"................"};
