/* XPM */
static char*w_add[]={
"16 16 6 1",
"b c #000000",
"a c #848484",
"# c #000084",
"d c #ffffff",
"c c #c6c6c6",
". c None",
"..........##....",
"..........##....",
"........######..",
"........######..",
"..........##....",
"..........##....",
"................",
"................",
"................",
"aba.......ab....",
"b.babbbbabbba...",
"b..bcdcbbcdcb...",
"b..bddcbbddcb...",
"ab.bcccbbcccb...",
"....bbbaabbba...",
"................"};
