const char* enum_xpm[] = {
"16 16 8 1",
"  c Gray0",
". c #000080",
"X c Blue",
"o c #008000",
"O c Green",
"+ c #800000",
"@ c Red",
"# c None",
"################",
"###########@@@+#",
"######     @@@+#",
"###### ####@@@+#",
"###### ####++++#",
"###### #########",
"###### ####OOOo#",
"###        OOOo#",
"###### ####OOOo#",
"###### ####oooo#",
"###### #########",
"###### ####XXX.#",
"######     XXX.#",
"###########XXX.#",
"###########....#",
"################"
};
