const char* folder_closed_xpm[] = {
"16 16 9 1",
"  c Gray0",
". c #222222",
"X c #6666cc",
"o c #9999ff",
"O c #c0c0c0",
"+ c #ccccff",
"@ c #ffffcc",
"# c Gray100",
"$ c None",
"$$$$$$$$$$$$$$$$",
"$$$$$$$$$$$$$$$$",
"$$$$$$$$$$$$$$$$",
"$$$$$$$$$$$$$$$$",
"$$XXXXo$$$$$$$$$",
"$X#++o@XXXXXX$$$",
"X#+++++++++++o$$",
"X#o+o+o+o+o+oX$$",
"X#+o+o+o+o+o+X $",
"X#o+o+o+o+o+oX $",
"X#+o+o+o+o+o+X $",
"X#o+o+o+o+o+oX $",
"X#+o+o+o+o+o+X $",
"X+o+o+o+o+o+oX $",
"XXXXXXXXXXXXXX $",
"$ ..           $"
};
